Date,Open,High,Low,Close,Adj Close,Volume
2013-01-02,79.117142,79.285713,77.375717,78.432854,55.684914,140129500
2013-01-03,78.268570,78.524284,77.285713,77.442856,54.982059,88241300
2013-01-04,76.709999,76.947144,75.118568,75.285713,53.450539,148583400
2013-01-07,74.571426,75.614288,73.599998,74.842857,53.136124,121039100
2013-01-08,75.601425,75.984283,74.464287,75.044289,53.279137,114676800
2013-01-09,74.642860,75.001427,73.712860,73.871429,52.446426,101901100
2013-01-10,75.507141,75.531425,73.645714,74.787140,53.096573,150286500
2013-01-11,74.428574,75.045715,74.145714,74.328575,52.770996,87626700
2013-01-14,71.811432,72.500000,71.215714,71.678574,50.889572,183551900
2013-01-15,71.185715,71.284286,69.054283,69.417145,49.284035,219193100
2013-01-16,70.662857,72.777145,70.357140,72.298569,51.329750,172701200
2013-01-17,72.901428,72.964287,71.718575,71.811432,50.983906,113419600
2013-01-18,71.217140,71.745712,70.914284,71.428574,50.712086,118230700
2013-01-22,72.080002,72.554283,70.947144,72.110001,51.195885,115386600
2013-01-23,72.687141,73.570000,72.110001,73.430000,52.133049,215377400
2013-01-24,65.714287,66.532860,64.321426,64.357140,45.691589,365213100
2013-01-25,64.527145,65.175713,62.142857,62.840000,44.614464,302006600
2013-01-28,62.547142,64.744286,62.265713,64.261429,45.623638,196379400
2013-01-29,65.500000,65.742859,64.588570,65.467140,46.479656,142789500
2013-01-30,65.285713,66.085716,64.928574,65.261429,46.333603,104288800
2013-01-31,65.282860,65.611427,64.997147,65.070000,46.197701,79833600
2013-02-01,65.587143,65.639999,64.050003,64.802856,46.008026,134871100
2013-02-04,64.844284,65.134285,63.142857,63.188572,44.861942,119279300
2013-02-05,63.435715,65.677139,63.174286,65.405716,46.436039,143336900
2013-02-06,65.209999,66.642860,64.654289,65.335716,46.386349,148426600
2013-02-07,66.178574,67.142860,64.874283,66.888573,49.496384,176145200
2013-02-08,67.714287,68.401428,66.892860,67.854286,50.210995,158289600
2013-02-11,68.071426,69.277145,67.607140,68.561432,50.734272,129372600
2013-02-12,68.501427,68.911430,66.820000,66.842857,49.462559,152263300
2013-02-13,66.744286,67.662857,66.174286,66.715714,49.368469,118801900
2013-02-14,66.360001,67.377144,66.288574,66.655716,49.324070,88818800
2013-02-15,66.978569,67.165718,65.702858,65.737144,48.644348,97936300
2013-02-19,65.871429,66.104286,64.835716,65.712860,48.626381,108945900
2013-02-20,65.384285,65.384285,64.114288,64.121429,47.448746,119075600
2013-02-21,63.714287,64.167145,63.259998,63.722858,47.153812,111795600
2013-02-22,64.178574,64.514282,63.799999,64.401428,47.655949,82663700
2013-02-25,64.835716,65.017143,63.224285,63.257141,46.809193,93144800
2013-02-26,63.402859,64.505714,62.522858,64.138573,47.461437,125374900
2013-02-27,64.061432,64.634285,62.950001,63.509998,46.996304,146837600
2013-02-28,63.435715,63.981430,63.057144,63.057144,46.661194,80628800
2013-03-01,62.571430,62.597141,61.425713,61.495716,45.505772,138112100
2013-03-04,61.114285,61.171429,59.857143,60.007141,44.404247,145688900
2013-03-05,60.211430,62.169998,60.107143,61.591427,45.576591,159608400
2013-03-06,62.072857,62.178570,60.632858,60.808571,44.997299,115062500
2013-03-07,60.642857,61.715714,60.151428,61.511429,45.517395,117118400
2013-03-08,61.400002,62.204285,61.230000,61.674286,45.637909,97870500
2013-03-11,61.392857,62.715714,60.734287,62.552856,46.288033,118559000
2013-03-12,62.228573,62.697144,61.081429,61.204285,45.290108,116477900
2013-03-13,61.207142,62.071430,60.765713,61.192856,45.281647,101387300
2013-03-14,61.832859,62.091427,61.492859,61.785713,45.720356,75968900
2013-03-15,62.561428,63.461430,62.464287,63.380001,46.900108,160990200
2013-03-18,63.064285,65.351425,63.028572,65.102859,48.174988,151549300
2013-03-19,65.642860,65.852859,64.071426,64.927139,48.044956,131693800
2013-03-20,65.345711,65.375717,64.227142,64.582855,47.790203,77165200
2013-03-21,64.317146,65.425713,64.300003,64.675713,47.858910,95813900
2013-03-22,64.940002,66.014282,64.730003,65.987144,48.829346,98776300
2013-03-25,66.384285,67.135712,65.968575,66.225716,49.005886,125283900
2013-03-26,66.491432,66.548569,65.790001,65.877144,48.747948,73573500
2013-03-27,65.208572,65.257141,64.389999,64.582855,47.790203,82809300
2013-03-28,64.260002,64.545715,63.088570,63.237144,46.794392,110709900
2013-04-01,63.128571,63.385715,61.105713,61.272858,45.340855,97433000
2013-04-02,61.085712,62.591427,60.914288,61.398571,45.433887,132379800
2013-04-03,61.624287,62.468571,61.472858,61.712856,45.666458,90804000
2013-04-04,61.965714,62.142857,60.750000,61.102856,45.215050,89611900
2013-04-05,60.642857,60.707142,59.954285,60.457142,44.737244,95923800
2013-04-08,60.692856,61.071430,60.355713,60.887142,45.055424,75207300
2013-04-09,60.908573,61.214287,60.392857,60.997143,45.136833,76653500
2013-04-10,61.157143,62.437141,60.858570,62.241428,46.057579,93982000
2013-04-11,61.959999,62.570000,61.599998,62.047142,45.913830,82091100
2013-04-12,62.021427,62.021427,61.298573,61.400002,45.434944,59653300
2013-04-15,61.000000,61.127144,59.935715,59.978573,44.383114,79380000
2013-04-16,60.224285,60.944286,60.081429,60.891430,45.058605,76442800
2013-04-17,60.038570,60.085712,56.872856,57.542858,42.580715,236264000
2013-04-18,57.855713,57.970001,55.677143,56.007141,41.444313,166574800
2013-04-19,55.424286,57.085712,55.014286,55.790001,41.283630,152318600
2013-04-22,56.091427,57.457142,55.895714,56.952858,42.144138,107480100
2013-04-23,57.712856,58.340000,56.972858,58.018570,42.932724,166059600
2013-04-24,56.220001,59.321430,56.071430,57.922855,42.861908,242412800
2013-04-25,58.747143,59.134285,58.142857,58.340000,43.170601,96209400
2013-04-26,58.544285,59.824287,58.321430,59.599998,44.102974,191024400
2013-04-29,60.064285,61.945713,60.000000,61.445713,45.468765,160081600
2013-04-30,62.157143,63.607143,61.724285,63.254284,46.807072,172884600
2013-05-01,63.494286,63.561428,62.055714,62.755714,46.438145,126727300
2013-05-02,63.111427,64.084282,62.947144,63.645714,47.096729,105457100
2013-05-03,64.472855,64.747147,64.164284,64.282860,47.568211,90325200
2013-05-06,65.101425,66.028572,64.901428,65.815712,48.702488,124160400
2013-05-07,66.424286,66.535713,64.814285,65.522858,48.485779,120938300
2013-05-08,65.577141,66.481430,65.115715,66.262856,49.033371,118149500
2013-05-09,65.687141,66.142860,65.082855,65.252853,50.615768,99621900
2013-05-10,65.424286,65.672859,64.354286,64.709999,50.194679,83713000
2013-05-13,64.501427,65.414284,64.500000,64.962860,50.390827,79237200
2013-05-14,64.835716,65.028572,63.164288,63.408573,49.185184,111779500
2013-05-15,62.737144,63.000000,60.337143,61.264286,47.521889,185403400
2013-05-16,60.462856,62.549999,59.842857,62.082859,48.156841,150801000
2013-05-17,62.721428,62.869999,61.572857,61.894287,48.010574,106976100
2013-05-20,61.701427,63.685715,61.442856,63.275715,49.082119,112894600
2013-05-21,62.592857,63.639999,62.028572,62.808571,48.719761,114005500
2013-05-22,63.435715,64.050003,62.602856,63.049999,48.907043,110759600
2013-05-23,62.278572,63.737144,62.255714,63.162857,48.994583,88255300
2013-05-24,62.978573,63.665714,62.908573,63.592857,49.328129,69041700
2013-05-28,64.271431,64.444283,62.978573,63.062859,48.917015,96536300
2013-05-29,62.857143,63.928570,62.771427,63.564285,49.305958,82644100
2013-05-30,63.664288,64.928574,63.501427,64.511429,50.040657,88379900
2013-05-31,64.642860,65.300003,64.214287,64.247147,49.835648,96075700
2013-06-03,64.389999,64.622856,63.211430,64.388573,49.945351,93088100
2013-06-04,64.745712,64.918571,63.912857,64.187141,49.789112,73182200
2013-06-05,63.664288,64.388573,63.387142,63.587143,49.323700,72647400
2013-06-06,63.638573,63.857143,62.007141,62.637142,48.586800,104233500
2013-06-07,62.357143,63.320000,61.824287,63.115715,48.958019,101133900
2013-06-10,63.532856,64.154289,62.400002,62.698570,48.634453,112538300
2013-06-11,62.248573,63.251427,61.902859,62.514286,48.491497,71528100
2013-06-12,62.785713,63.035713,61.642857,61.741428,47.891998,66306800
2013-06-13,61.785713,62.448570,61.250000,62.279999,48.309765,71458100
2013-06-14,62.200001,62.327145,61.214287,61.435715,47.654861,67966500
2013-06-17,61.634285,62.242859,61.480000,61.714287,47.870945,64853600
2013-06-18,61.651428,62.128571,61.458572,61.681427,47.845463,48756400
2013-06-19,61.628571,61.665714,60.428570,60.428570,46.873631,77735000
2013-06-20,59.900002,60.854286,59.310001,59.548573,46.191036,89327700
2013-06-21,59.784286,60.000000,58.299999,59.071430,45.820908,120279600
2013-06-24,58.200001,58.380001,56.864285,57.505714,44.606430,120186500
2013-06-25,57.957142,58.255714,56.975716,57.518570,44.616375,78540700
2013-06-26,57.700001,57.827145,56.522858,56.867142,44.111076,91931000
2013-06-27,57.035713,57.341427,56.220001,56.254284,43.635693,84311500
2013-06-28,55.908573,57.181427,55.552856,56.647144,43.940441,144629100
2013-07-01,57.527142,58.895714,57.317142,58.459999,45.346634,97763400
2013-07-02,58.565716,60.232857,58.495716,59.784286,46.373867,117466300
2013-07-03,60.122856,60.425713,59.635715,60.114285,46.629845,60232200
2013-07-05,60.055714,60.470001,59.335712,59.631428,46.255302,68506200
2013-07-08,60.015713,60.142857,58.664288,59.292858,45.992683,74534600
2013-07-09,59.085712,60.500000,58.625713,60.335712,46.801605,88146100
2013-07-10,59.942856,60.685715,59.750000,60.104286,46.622093,70351400
2013-07-11,60.421429,61.178570,60.167141,61.041428,47.349030,81573100
2013-07-12,61.092857,61.398571,60.487144,60.930000,47.262585,69890800
2013-07-15,60.715714,61.637142,60.685715,61.062859,47.365639,60479300
2013-07-16,60.931427,61.529999,60.595715,61.457142,47.671490,54134500
2013-07-17,61.385715,61.745716,61.174286,61.472858,47.683678,49747600
2013-07-18,61.911430,62.124287,61.515713,61.680000,47.844353,54719700
2013-07-19,61.871429,61.997143,60.621429,60.707142,47.089714,67180400
2013-07-22,61.351429,61.392857,60.781429,60.901428,47.240433,51949100
2013-07-23,60.857143,60.994286,59.815716,59.855713,46.429276,92348900
2013-07-24,62.704285,63.512856,62.180000,62.930000,48.813957,147984200
2013-07-25,62.957142,63.057144,62.258572,62.642857,48.591228,57373400
2013-07-26,62.185715,63.005714,62.048573,62.998573,48.867146,50038100
2013-07-29,62.971428,64.284286,62.885715,63.970001,49.620686,62014400
2013-07-30,64.279999,65.307144,64.175713,64.760002,50.233463,77355600
2013-07-31,64.998573,65.334282,64.204285,64.647141,50.145920,80739400
2013-08-01,65.107140,65.257141,64.751427,65.239998,50.605789,51562700
2013-08-02,65.430000,66.121429,65.237144,66.077141,51.255150,68695900
2013-08-05,66.384285,67.238571,66.021431,67.064285,52.020863,79713900
2013-08-06,66.860001,67.412857,66.024284,66.464287,51.555454,83714400
2013-08-07,66.257141,66.714287,65.967140,66.425713,51.525536,74714500
2013-08-08,66.265717,66.300003,65.421425,65.858574,53.544151,63944300
2013-08-09,65.519997,65.779999,64.807144,64.921425,52.782227,66716300
2013-08-12,65.265717,66.949997,65.232857,66.765717,54.281673,91108500
2013-08-13,67.277145,70.665718,66.864288,69.938568,56.861259,220485300
2013-08-14,71.125717,72.035713,70.485718,71.214287,57.898430,189093100
2013-08-15,70.917145,71.771431,69.868568,71.129997,57.829910,122573500
2013-08-16,71.449997,71.848572,71.265717,71.761429,58.343269,90576500
2013-08-19,72.048569,73.391426,72.000000,72.534286,58.971622,127629600
2013-08-20,72.815712,72.938568,71.545715,71.581429,58.196926,89672100
2013-08-21,71.941429,72.449997,71.599998,71.765717,58.346752,83969900
2013-08-22,72.139999,72.227142,71.171425,71.851425,58.416435,61051900
2013-08-23,71.895714,71.907143,71.335716,71.574287,58.191120,55682900
2013-08-26,71.535713,72.885712,71.500000,71.852859,58.417610,82741400
2013-08-27,71.142860,71.787140,69.471428,69.798569,56.747433,106047200
2013-08-28,69.428574,70.828575,69.428574,70.128571,57.015728,76902000
2013-08-29,70.235718,70.928574,70.161430,70.242859,57.108639,59914400
2013-08-30,70.285713,70.421425,69.500000,69.602859,56.588310,68074300
2013-09-03,70.442856,71.514282,69.621429,69.797142,56.746265,82982200
2013-09-04,71.365715,71.748573,70.897141,71.241432,57.920506,86258200
2013-09-05,71.464287,71.525711,70.519997,70.752853,57.523273,59091900
2013-09-06,71.205711,71.339996,69.992859,71.174286,57.865902,89881400
2013-09-09,72.142860,72.559998,71.925713,72.309998,58.789276,85171800
2013-09-10,72.314285,72.492859,69.928574,70.662857,57.450104,185798900
2013-09-11,66.715714,67.669998,66.401428,66.815712,54.322304,224674100
2013-09-12,66.928574,67.914284,66.572861,67.527145,54.900715,101012800
2013-09-13,67.048569,67.404289,66.385712,66.414284,53.995949,74708900
2013-09-16,65.857140,65.944283,63.888573,64.302856,52.279324,135926700
2013-09-17,63.994286,65.672859,63.928570,65.045715,52.883270,99845200
2013-09-18,66.168571,66.621429,65.808571,66.382858,53.970406,114215500
2013-09-19,67.242859,67.975716,67.035713,67.471428,54.855423,101135300
2013-09-20,68.285713,68.364288,66.571426,66.772858,54.287479,174825700
2013-09-23,70.871429,70.987144,68.942856,70.091431,56.985535,190526700
2013-09-24,70.697144,70.781425,69.688568,69.871429,56.806667,91086100
2013-09-25,69.885712,69.948570,68.775711,68.790001,55.927444,79239300
2013-09-26,69.428574,69.794289,69.128571,69.459999,56.472164,59305400
2013-09-27,69.111427,69.238571,68.674286,68.964287,56.069149,57010100
2013-09-30,68.178574,68.808571,67.772858,68.107140,55.372272,65039100
2013-10-01,68.349998,69.877144,68.339996,69.708572,56.674255,88470900
2013-10-02,69.375717,70.257141,69.107140,69.937141,56.860092,72296000
2013-10-03,70.072861,70.335716,68.677139,69.058571,56.145794,80688300
2013-10-04,69.122856,69.228569,68.371429,69.004288,56.101662,64717100
2013-10-07,69.508568,70.378571,69.335716,69.678574,56.649872,78073100
2013-10-08,69.991432,70.091431,68.648575,68.705711,55.858910,72729300
2013-10-09,69.234283,69.684288,68.325714,69.512856,56.515137,75431300
2013-10-10,70.188568,70.339996,69.577141,69.948570,56.869381,69650700
2013-10-11,69.570000,70.548569,69.308571,70.401428,57.237564,66934700
2013-10-14,69.975716,71.082855,69.907143,70.862854,57.612717,65474500
2013-10-15,71.072861,71.714287,70.788574,71.239998,57.919342,80018400
2013-10-16,71.541428,71.790001,71.318573,71.587143,58.201576,62775300
2013-10-17,71.425713,72.111427,71.382858,72.071426,58.595303,63398300
2013-10-18,72.284286,72.751427,72.244286,72.698570,59.105186,72635500
2013-10-21,73.110001,74.900002,73.074287,74.480003,60.553528,99526700
2013-10-22,75.201431,75.492859,72.575714,74.267143,60.380447,133515900
2013-10-23,74.142860,75.095711,74.142860,74.994286,60.971642,78430800
2013-10-24,75.000000,76.067146,74.635712,75.987144,61.778843,96191200
2013-10-25,75.902855,76.175713,75.015717,75.137146,61.087799,84448000
2013-10-28,75.577141,75.857140,74.744286,75.697144,61.543068,137610200
2013-10-29,76.610001,77.035713,73.505714,73.811432,60.009949,158951800
2013-10-30,74.230003,75.360001,73.860001,74.985718,60.964672,88540900
2013-10-31,75.000000,75.355713,74.467140,74.671425,60.709133,68924100
2013-11-01,74.860001,74.971428,73.691429,74.290001,60.399052,68722500
2013-11-04,74.442856,75.260002,74.115715,75.250000,61.179546,61156900
2013-11-05,74.940002,75.555717,74.714287,75.064285,61.028553,66303300
2013-11-06,74.878571,74.980003,74.028572,74.417145,63.064850,55843900
2013-11-07,74.225716,74.741432,73.197144,73.212860,62.044285,65655100
2013-11-08,73.511429,74.447144,73.227142,74.365715,63.021267,69829200
2013-11-11,74.284286,74.524284,73.487144,74.150002,62.838459,56863100
2013-11-12,73.952858,74.845711,73.857140,74.287140,62.954670,51069200
2013-11-13,74.000000,74.607140,73.851425,74.375717,63.029758,49305200
2013-11-14,74.687141,75.611427,74.552856,75.451431,63.941368,70604800
2013-11-15,75.225716,75.584282,74.927139,74.998573,63.557590,79480100
2013-11-18,74.998573,75.312859,74.028572,74.089996,62.787613,61236000
2013-11-19,74.147141,74.768570,73.995712,74.221428,62.898998,52234700
2013-11-20,74.175713,74.345711,73.475716,73.571426,62.348152,48479200
2013-11-21,73.942856,74.458572,73.381432,74.448570,63.091476,65506700
2013-11-22,74.217140,74.594284,74.075714,74.257141,62.929253,55931400
2013-11-25,74.431427,75.124283,74.428574,74.820000,63.406246,57327900
2013-11-26,74.874283,76.591431,74.857140,76.199997,64.575745,100345700
2013-11-27,76.615715,78.000000,76.199997,77.994286,66.096306,90862100
2013-11-29,78.497147,79.761429,78.258568,79.438568,67.320251,79531900
2013-12-02,79.714287,80.618568,78.688568,78.747147,66.734314,118136200
2013-12-03,79.757141,80.911430,79.668571,80.902855,68.561172,112742000
2013-12-04,80.785713,81.312859,80.117142,80.714287,68.401375,94452400
2013-12-05,81.807144,82.162857,80.915718,81.128571,68.752472,111895000
2013-12-06,80.827141,80.964287,79.938568,80.002853,67.798485,86088100
2013-12-09,80.128571,81.368568,80.128571,80.918571,68.574486,80123400
2013-12-10,80.511429,81.125717,80.171425,80.792854,68.467964,69567400
2013-12-11,81.000000,81.567146,79.955711,80.194283,67.960686,89929700
2013-12-12,80.305717,80.762856,80.004288,80.077141,67.861435,65572500
2013-12-13,80.407143,80.411430,79.095711,79.204285,67.121719,83205500
2013-12-16,79.288574,80.377144,79.287140,79.642860,67.493378,70648200
2013-12-17,79.401428,79.919998,79.054283,79.284286,67.189507,57475600
2013-12-18,78.528572,78.778572,76.971428,78.681427,66.678619,141465800
2013-12-19,78.500000,78.571426,77.675713,77.779999,65.914688,80077200
2013-12-20,77.918571,78.801430,77.831429,78.431427,66.466751,109103400
2013-12-23,81.142860,81.531425,80.394287,81.441429,69.017593,125326600
2013-12-24,81.412857,81.697144,80.861427,81.095711,68.724609,41888700
2013-12-26,81.157143,81.357140,80.482857,80.557144,68.268204,51002000
2013-12-27,80.545715,80.629997,79.928574,80.012856,67.806931,56471100
2013-12-30,79.637146,80.012856,78.902855,79.217140,67.132591,63407400
2013-12-31,79.167145,80.182854,79.142860,80.145714,67.919533,55771100
2014-01-02,79.382858,79.575714,78.860001,79.018570,66.964325,58671200
2014-01-03,78.980003,79.099998,77.204285,77.282860,65.493416,98116900
2014-01-06,76.778572,78.114288,76.228569,77.704285,65.850533,103152700
2014-01-07,77.760002,77.994286,76.845711,77.148575,65.379593,79302300
2014-01-08,76.972855,77.937141,76.955711,77.637146,65.793633,64632400
2014-01-09,78.114288,78.122856,76.478569,76.645714,64.953445,69787200
2014-01-10,77.118568,77.257141,75.872856,76.134285,64.520035,76244000
2014-01-13,75.701431,77.500000,75.697144,76.532860,64.857819,94623200
2014-01-14,76.888573,78.104286,76.808571,78.055717,66.148376,83140400
2014-01-15,79.074287,80.028572,78.808571,79.622856,67.476418,97909700
2014-01-16,79.271431,79.550003,78.811432,79.178574,67.099922,57319500
2014-01-17,78.782860,78.867142,77.128571,77.238571,65.455879,106684900
2014-01-21,77.284286,78.581429,77.202858,78.438568,66.472824,82131700
2014-01-22,78.701431,79.612854,78.258568,78.787140,66.768219,94996300
2014-01-23,78.562859,79.500000,77.830002,79.454285,67.333588,100809800
2014-01-24,79.142860,79.374283,77.821426,78.010002,66.109619,107338700
2014-01-27,78.581429,79.257141,77.964287,78.642860,66.645943,138719700
2014-01-28,72.680000,73.571426,71.724289,72.357140,61.319111,266380800
2014-01-29,71.992859,72.481430,71.231430,71.535713,60.622982,125702500
2014-01-30,71.791428,72.357140,70.957146,71.397141,60.505547,169625400
2014-01-31,70.739998,71.647141,70.507141,71.514282,60.604813,116199300
2014-02-03,71.801430,72.532860,71.328575,71.647141,60.717407,100366000
2014-02-04,72.264282,72.779999,71.822861,72.684288,61.596340,94170300
2014-02-05,72.365715,73.611427,72.321426,73.227142,62.056385,82086200
2014-02-06,72.865715,73.357140,72.544289,73.215714,64.743347,64441300
2014-02-07,74.482857,74.704285,73.911430,74.239998,65.649094,92570100
2014-02-10,74.094284,75.998573,74.000000,75.570000,66.825180,86389800
2014-02-11,75.801430,76.821426,75.642860,76.565712,67.705673,70564200
2014-02-12,76.707146,77.080002,76.177139,76.559998,67.700623,77025200
2014-02-13,76.379997,77.835716,76.314285,77.775711,68.775658,76849500
2014-02-14,77.495712,77.997147,77.315712,77.712860,68.720093,68231100
2014-02-18,78.000000,78.741432,77.944283,77.998573,68.972733,65062900
2014-02-19,77.821426,78.127144,76.335716,76.767143,67.883812,78442000
2014-02-20,76.141426,76.714287,75.571426,75.878571,67.098045,76464500
2014-02-21,76.112854,76.367142,74.942856,75.035713,66.352722,69696200
2014-02-24,74.735718,75.702858,74.631432,75.364288,66.643288,72227400
2014-02-25,75.625717,75.652855,74.428574,74.580002,65.949753,57988000
2014-02-26,74.801430,75.000000,73.657143,73.907143,65.354752,69054300
2014-02-27,73.877144,75.540001,73.721428,75.381432,66.658447,75470500
2014-02-28,75.582855,76.107140,74.588570,75.177139,66.477783,92992200
2014-03-03,74.774284,75.807144,74.687141,75.394287,66.669823,59695300
2014-03-04,75.857140,76.091431,75.395714,75.891426,67.109421,64785000
2014-03-05,75.845711,76.392860,75.589996,76.051430,67.250908,50015700
2014-03-06,76.112854,76.348572,75.442856,75.821426,67.047539,46372200
2014-03-07,75.870003,75.997147,75.150002,75.777145,67.008354,55182400
2014-03-10,75.480003,76.190002,75.477142,75.845711,67.068993,44646000
2014-03-11,76.492859,76.962860,76.084282,76.584282,67.722099,69806100
2014-03-12,76.358574,76.764282,76.000000,76.658569,67.787781,49831600
2014-03-13,76.777145,77.094284,75.594284,75.807144,67.034889,64435700
2014-03-14,75.541428,75.841431,74.714287,74.955711,66.281975,59299800
2014-03-17,75.385712,75.709999,75.121429,75.248573,66.540955,49886200
2014-03-18,75.128571,75.995712,75.028572,75.914284,67.129631,52411800
2014-03-19,76.037140,76.605713,75.571426,75.894287,67.111969,56189000
2014-03-20,75.698570,76.095711,75.335716,75.528572,66.788559,52099600
2014-03-21,75.989998,76.250000,75.190002,76.124283,67.315308,93511600
2014-03-24,76.917145,77.214287,76.437141,77.027145,68.113724,88925200
2014-03-25,77.357140,77.964287,77.084282,77.855713,68.846397,70573300
2014-03-26,78.074287,78.428574,76.980003,77.111427,68.188232,74942000
2014-03-27,77.145714,77.357140,76.445717,76.779999,67.895157,55507900
2014-03-28,76.902855,76.991432,76.321426,76.694283,67.819397,50141000
2014-03-31,77.032860,77.258568,76.561432,76.677139,67.804207,42167300
2014-04-01,76.822861,77.410004,76.681427,77.378571,68.424469,50190000
2014-04-02,77.482857,77.639999,77.180000,77.507141,68.538170,45105200
2014-04-03,77.341431,77.500000,76.805717,76.970001,68.063202,40586000
2014-04-04,77.115715,77.142860,75.797142,75.974289,67.182701,68812800
2014-04-07,75.431427,75.842857,74.555717,74.781425,66.127869,72462600
2014-04-08,75.027145,75.160004,74.099998,74.777145,66.124092,60972100
2014-04-09,74.662857,75.784286,74.574287,75.760002,66.993195,51542400
2014-04-10,75.811432,76.034286,74.738571,74.782860,66.129150,59913000
2014-04-11,74.142860,74.690002,73.877144,74.230003,65.640236,67929400
2014-04-14,74.557144,74.594284,73.887146,74.525711,65.901756,51418500
2014-04-15,74.324287,74.519997,73.047142,73.994286,65.431808,66622500
2014-04-16,74.007141,74.441429,73.448570,74.144287,65.564453,53691400
2014-04-17,74.285713,75.394287,74.171425,74.991432,66.313568,71083600
2014-04-21,75.048569,76.019997,74.851425,75.881432,67.100571,45637200
2014-04-22,75.472855,75.975716,75.214287,75.957146,67.167534,50640800
2014-04-23,75.580002,75.875717,74.921425,74.964287,66.289574,98735000
2014-04-24,81.172859,81.428574,80.104286,81.110001,71.724113,189977900
2014-04-25,80.647141,81.712860,80.565712,81.705711,72.250885,97568800
2014-04-28,81.828575,85.107140,81.792854,84.870003,75.049004,167371400
2014-04-29,84.820000,85.139999,84.215714,84.618568,74.826683,84344400
2014-04-30,84.662857,85.632858,84.257141,84.298569,74.543709,114160200
2014-05-01,84.571426,84.971428,83.765717,84.497147,74.719299,61012000
2014-05-02,84.620003,84.885712,84.244286,84.654289,74.858269,47878600
2014-05-05,84.305717,85.857140,84.285713,85.851425,75.916885,71766800
2014-05-06,85.971428,86.344284,84.915718,84.915718,75.089447,93641100
2014-05-07,85.035713,85.327141,83.961426,84.618568,74.826683,70716100
2014-05-08,84.035713,84.915718,83.771431,83.998573,77.283211,57574300
2014-05-09,83.505714,83.750000,82.904289,83.648575,76.961197,72899400
2014-05-12,83.927139,84.808571,83.914284,84.690002,77.919380,53302200
2014-05-13,84.571426,84.934288,84.385712,84.822861,78.041618,39934300
2014-05-14,84.632858,85.342857,84.534286,84.838570,78.056053,41601000
2014-05-15,84.957146,85.228569,84.005714,84.117142,77.392319,57711500
2014-05-16,84.089996,85.361427,83.628571,85.358574,78.534492,69064100
2014-05-19,85.407143,86.761429,85.332855,86.370003,79.465065,79438800
2014-05-20,86.358574,86.628571,85.818573,86.387146,79.480827,58709000
2014-05-21,86.261429,86.671425,86.008568,86.615715,79.691139,49214900
2014-05-22,86.657143,87.121429,86.300003,86.752853,79.817314,50190000
2014-05-23,86.750000,87.818573,86.638573,87.732857,80.718971,58052400
2014-05-27,87.982857,89.408569,87.947144,89.375717,82.230476,87216500
2014-05-28,89.431427,89.975716,89.111427,89.144287,82.017570,78870400
2014-05-29,89.692856,90.981430,89.681427,90.768570,83.511993,94118500
2014-05-30,91.139999,92.024284,89.842857,90.428574,83.199173,141005200
2014-06-02,90.565712,90.690002,88.928574,89.807144,82.627434,92337700
2014-06-03,89.779999,91.248573,89.750000,91.077141,83.795898,73177300
2014-06-04,91.062859,92.555717,90.872856,92.117142,84.752747,83870500
2014-06-05,92.314285,92.767143,91.801430,92.478569,85.085281,75951400
2014-06-06,92.842857,93.037140,92.067146,92.224289,84.851349,87484600
2014-06-09,92.699997,93.879997,91.750000,93.699997,86.209076,75415000
2014-06-10,94.730003,95.050003,93.570000,94.250000,86.715096,62777000
2014-06-11,94.129997,94.760002,93.470001,93.860001,86.356293,45681000
2014-06-12,94.040001,94.120003,91.900002,92.290001,84.911781,54749000
2014-06-13,92.199997,92.440002,90.879997,91.279999,83.982529,54525000
2014-06-16,91.510002,92.750000,91.449997,92.199997,84.828972,35561000
2014-06-17,92.309998,92.699997,91.800003,92.080002,84.718567,29726000
2014-06-18,92.269997,92.290001,91.349998,92.180000,84.810600,33514000
2014-06-19,92.290001,92.300003,91.339996,91.860001,84.516167,35528000
2014-06-20,91.849998,92.550003,90.900002,90.910004,83.642128,100898000
2014-06-23,91.320000,91.620003,90.599998,90.830002,83.568497,43694000
2014-06-24,90.750000,91.739998,90.190002,90.279999,83.062485,39036000
2014-06-25,90.209999,90.699997,89.650002,90.360001,83.136078,36869000
2014-06-26,90.370003,91.050003,89.800003,90.900002,83.632912,32629000
2014-06-27,90.820000,92.000000,90.769997,91.980003,84.626579,64029000
2014-06-30,92.099998,93.730003,92.089996,92.930000,85.500610,49482300
2014-07-01,93.519997,94.070000,93.129997,93.519997,86.043442,38223000
2014-07-02,93.870003,94.059998,93.089996,93.480003,86.006638,28465000
2014-07-03,93.669998,94.099998,93.199997,94.029999,86.512680,22891800
2014-07-07,94.139999,95.989998,94.099998,95.970001,88.297592,56468000
2014-07-08,96.269997,96.800003,93.919998,95.349998,87.727150,65222000
2014-07-09,95.440002,95.949997,94.760002,95.389999,87.763939,36436000
2014-07-10,93.760002,95.550003,93.519997,95.040001,87.441940,39686000
2014-07-11,95.360001,95.889999,94.860001,95.220001,87.607529,34018000
2014-07-14,95.860001,96.889999,95.650002,96.449997,88.739197,42810000
2014-07-15,96.800003,96.849998,95.029999,95.320000,87.699570,45477900
2014-07-16,96.970001,97.099998,94.739998,94.779999,87.202713,53396300
2014-07-17,95.029999,95.279999,92.570000,93.089996,85.647842,57298000
2014-07-18,93.620003,94.739998,93.019997,94.430000,86.880707,49988000
2014-07-21,94.989998,95.000000,93.720001,93.940002,86.429893,39079000
2014-07-22,94.680000,94.889999,94.120003,94.720001,87.147530,55197000
2014-07-23,95.419998,97.879997,95.169998,97.190002,89.420052,92918000
2014-07-24,97.040001,97.320000,96.419998,97.029999,89.272858,45729000
2014-07-25,96.849998,97.839996,96.639999,97.669998,89.861679,43469000
2014-07-28,97.820000,99.239998,97.550003,99.019997,91.103737,55318000
2014-07-29,99.330002,99.440002,98.250000,98.379997,90.514915,43143000
2014-07-30,98.440002,98.699997,97.669998,98.150002,90.303284,33010000
2014-07-31,97.160004,97.449997,95.330002,95.599998,87.957153,56843000
2014-08-01,94.900002,96.620003,94.809998,96.129997,88.444794,48511000
2014-08-04,96.370003,96.580002,95.169998,95.589996,87.947975,39958000
2014-08-05,95.360001,95.680000,94.360001,95.120003,87.515549,55933000
2014-08-06,94.750000,95.480003,94.709999,94.959999,87.368324,38558000
2014-08-07,94.930000,95.949997,94.099998,94.480003,87.359085,46711000
2014-08-08,94.260002,94.820000,93.279999,94.739998,87.599480,41865000
2014-08-11,95.269997,96.080002,94.839996,95.989998,88.755272,36585000
2014-08-12,96.040001,96.879997,95.610001,95.970001,88.736786,33795000
2014-08-13,96.150002,97.239998,96.040001,97.239998,89.911064,31916000
2014-08-14,97.330002,97.570000,96.800003,97.500000,90.151459,28116000
2014-08-15,97.900002,98.190002,96.860001,97.980003,90.595291,48951000
2014-08-18,98.489998,99.370003,97.980003,99.160004,91.686363,47572000
2014-08-19,99.410004,100.680000,99.320000,100.529999,92.953094,69399000
2014-08-20,100.440002,101.089996,99.949997,100.570000,92.990074,52699000
2014-08-21,100.570000,100.940002,100.110001,100.580002,92.999329,33478000
2014-08-22,100.290001,101.470001,100.190002,101.320000,93.683578,44184000
2014-08-25,101.790001,102.169998,101.279999,101.540001,93.886971,40270000
2014-08-26,101.419998,101.500000,100.860001,100.889999,93.285942,33152000
2014-08-27,101.019997,102.570000,100.699997,102.129997,94.432510,52369000
2014-08-28,101.589996,102.779999,101.559998,102.250000,94.543472,68460000
2014-08-29,102.860001,102.900002,102.199997,102.500000,94.774620,44595000
2014-09-02,103.059998,103.739998,102.720001,103.300003,95.514320,53564000
2014-09-03,103.099998,103.199997,98.580002,98.940002,91.482925,125421000
2014-09-04,98.849998,100.089996,97.790001,98.120003,90.724754,85718000
2014-09-05,98.800003,99.389999,98.309998,98.970001,91.510666,58457000
2014-09-08,99.300003,99.309998,98.050003,98.360001,90.946655,46356700
2014-09-09,99.080002,103.080002,96.139999,97.989998,90.604546,189846300
2014-09-10,98.010002,101.110001,97.760002,101.000000,93.387672,100869600
2014-09-11,100.410004,101.440002,99.620003,101.430000,93.785255,62353100
2014-09-12,101.209999,102.190002,101.080002,101.660004,93.997940,62626100
2014-09-15,102.809998,103.050003,101.440002,101.629997,93.970192,61316500
2014-09-16,99.800003,101.260002,98.889999,100.860001,93.258224,66908100
2014-09-17,101.269997,101.800003,100.589996,101.580002,93.923965,60926500
2014-09-18,101.930000,102.349998,101.559998,101.790001,94.118134,37299400
2014-09-19,102.290001,102.349998,100.500000,100.959999,93.350693,70902400
2014-09-22,101.800003,102.139999,100.580002,101.059998,93.443146,52788400
2014-09-23,100.599998,102.940002,100.540001,102.639999,94.904076,63402200
2014-09-24,102.160004,102.849998,101.199997,101.750000,94.081146,60171800
2014-09-25,100.510002,100.709999,97.720001,97.870003,90.493599,100092000
2014-09-26,98.529999,100.750000,98.400002,100.750000,93.156509,62370500
2014-09-29,98.650002,100.440002,98.629997,100.110001,92.564751,49766300
2014-09-30,100.809998,101.540001,100.529999,100.750000,93.156509,55264100
2014-10-01,100.589996,100.690002,98.699997,99.180000,91.704857,51491300
2014-10-02,99.269997,100.220001,98.040001,99.900002,92.370575,47757800
2014-10-03,99.440002,100.209999,99.040001,99.620003,92.111702,43469600
2014-10-06,99.949997,100.650002,99.419998,99.620003,92.111702,37051200
2014-10-07,99.430000,100.120003,98.730003,98.750000,91.307266,42094200
2014-10-08,98.760002,101.110001,98.309998,100.800003,93.202759,57404700
2014-10-09,101.540001,102.379997,100.610001,101.019997,93.406174,77376500
2014-10-10,100.690002,102.029999,100.300003,100.730003,93.138023,66331600
2014-10-13,101.330002,101.779999,99.809998,99.809998,92.287369,53583400
2014-10-14,100.389999,100.519997,98.570000,98.750000,91.307266,63688600
2014-10-15,97.970001,99.150002,95.180000,97.540001,90.188454,100933600
2014-10-16,95.550003,97.720001,95.410004,96.260002,89.004921,72154500
2014-10-17,97.500000,99.000000,96.809998,97.669998,90.308647,68179700
2014-10-20,98.320000,99.959999,98.220001,99.760002,92.241142,77517300
2014-10-21,103.019997,103.019997,101.269997,102.470001,94.746887,94623900
2014-10-22,102.839996,104.110001,102.599998,102.989998,95.227699,68263100
2014-10-23,104.080002,105.050003,103.629997,104.830002,96.929016,71074700
2014-10-24,105.180000,105.489998,104.529999,105.220001,97.289619,47053900
2014-10-27,104.849998,105.480003,104.699997,105.110001,97.187912,34187700
2014-10-28,105.400002,106.739998,105.349998,106.739998,98.695061,48060900
2014-10-29,106.650002,107.370003,106.360001,107.339996,99.249817,52687900
2014-10-30,106.959999,107.349998,105.900002,106.980003,98.916977,40654800
2014-10-31,108.010002,108.040001,107.209999,108.000000,99.860077,44639300
2014-11-03,108.220001,110.300003,108.010002,109.400002,101.154572,52282600
2014-11-04,109.360001,109.489998,107.720001,108.599998,100.414879,41574400
2014-11-05,109.099998,109.300003,108.129997,108.860001,100.655266,37435900
2014-11-06,108.599998,108.790001,107.800003,108.699997,100.943130,34968500
2014-11-07,108.750000,109.320000,108.550003,109.010002,101.231010,33691500
2014-11-10,109.019997,109.330002,108.669998,108.830002,101.063866,27195500
2014-11-11,108.699997,109.750000,108.400002,109.699997,101.871780,27442300
2014-11-12,109.379997,111.430000,109.370003,111.250000,103.311195,46942400
2014-11-13,111.800003,113.449997,111.599998,112.820000,104.769142,59522900
2014-11-14,113.150002,114.190002,111.209999,114.180000,106.032097,44063600
2014-11-17,114.269997,117.279999,113.300003,113.989998,105.855652,46746700
2014-11-18,113.940002,115.690002,113.889999,115.470001,107.230049,44224000
2014-11-19,115.440002,115.739998,113.800003,114.669998,106.487114,41869200
2014-11-20,114.910004,116.860001,114.849998,116.309998,108.010109,43395500
2014-11-21,117.510002,117.570000,116.029999,116.470001,108.158691,57179300
2014-11-24,116.849998,118.769997,116.620003,118.629997,110.164543,47450800
2014-11-25,119.070000,119.750000,117.449997,117.599998,109.208054,68840400
2014-11-26,117.940002,119.099998,117.830002,119.000000,110.508148,40768300
2014-11-28,119.269997,119.400002,118.050003,118.930000,110.443123,24814400
2014-12-01,118.809998,119.250000,111.269997,115.070000,106.858582,83814000
2014-12-02,113.500000,115.750000,112.750000,114.629997,106.449982,59348900
2014-12-03,115.750000,116.349998,115.110001,115.930000,107.657219,43063400
2014-12-04,115.769997,117.199997,115.290001,115.489998,107.248604,42044500
2014-12-05,115.989998,116.080002,114.639999,115.000000,106.793579,38318900
2014-12-08,114.099998,114.650002,111.620003,112.400002,104.379112,57664900
2014-12-09,110.190002,114.300003,109.349998,114.120003,105.976402,60208000
2014-12-10,114.410004,114.849998,111.540001,111.949997,103.961235,44565300
2014-12-11,112.260002,113.800003,111.339996,111.620003,103.654778,41401700
2014-12-12,110.459999,111.870003,109.580002,109.730003,101.899651,56028100
2014-12-15,110.699997,111.599998,106.349998,108.230003,100.506699,67218100
2014-12-16,106.370003,110.160004,106.260002,106.750000,99.132278,60790700
2014-12-17,107.120003,109.839996,106.820000,109.410004,101.602486,53411800
2014-12-18,111.870003,112.650002,110.660004,112.650002,104.611275,59006200
2014-12-19,112.260002,113.239998,111.660004,111.779999,103.803352,88429800
2014-12-22,112.160004,113.489998,111.970001,112.940002,104.880577,45167500
2014-12-23,113.230003,113.330002,112.459999,112.540001,104.509132,26028400
2014-12-24,112.580002,112.709999,112.010002,112.010002,104.016945,14479600
2014-12-26,112.099998,114.519997,112.010002,113.989998,105.855652,33721000
2014-12-29,113.790001,114.769997,113.699997,113.910004,105.781364,27598900
2014-12-30,113.639999,113.919998,112.110001,112.519997,104.490555,29881500
2014-12-31,112.820000,113.129997,110.209999,110.379997,102.503265,41403400
2015-01-02,111.389999,111.440002,107.349998,109.330002,101.528191,53204600
2015-01-05,108.290001,108.650002,105.410004,106.250000,98.667984,64285500
2015-01-06,106.540001,107.430000,104.629997,106.260002,98.677261,65797100
2015-01-07,107.199997,108.199997,106.699997,107.750000,100.060936,40105900
2015-01-08,109.230003,112.150002,108.699997,111.889999,103.905510,59364500
2015-01-09,112.669998,113.250000,110.209999,112.010002,104.016945,53699500
2015-01-12,112.599998,112.629997,108.800003,109.250000,101.453903,49650800
2015-01-13,111.430000,112.800003,108.910004,110.220001,102.354675,67091900
2015-01-14,109.040001,110.489998,108.500000,109.800003,101.964645,48337000
2015-01-15,110.000000,110.059998,106.660004,106.820000,99.197289,60014000
2015-01-16,107.029999,107.580002,105.199997,105.989998,98.426529,78513300
2015-01-20,107.839996,108.970001,106.500000,108.720001,100.961716,49899900
2015-01-21,108.949997,111.059998,108.269997,109.550003,101.732506,48575900
2015-01-22,110.260002,112.470001,109.720001,112.400002,104.379112,53796400
2015-01-23,112.300003,113.750000,111.529999,112.980003,104.917725,46464800
2015-01-26,113.739998,114.360001,112.800003,113.099998,105.029175,55615000
2015-01-27,112.419998,112.480003,109.029999,109.139999,101.351738,95568700
2015-01-28,117.629997,118.120003,115.309998,115.309998,107.081474,146477100
2015-01-29,116.320000,119.190002,115.559998,118.900002,110.415276,84436400
2015-01-30,118.400002,120.000000,116.849998,117.160004,108.799446,83745500
2015-02-02,118.050003,119.169998,116.080002,118.629997,110.164543,62739100
2015-02-03,118.500000,119.089996,117.610001,118.650002,110.183121,51915700
2015-02-04,118.500000,120.510002,118.309998,119.559998,111.028168,70149700
2015-02-05,120.019997,120.230003,119.250000,119.940002,111.820625,42246200
2015-02-06,120.019997,120.250000,118.449997,118.930000,110.879021,43706600
2015-02-09,118.550003,119.839996,118.430000,119.720001,111.615524,38889800
2015-02-10,120.169998,122.150002,120.160004,122.019997,113.759834,62008500
2015-02-11,122.769997,124.919998,122.500000,124.879997,116.426216,73561800
2015-02-12,126.059998,127.480003,125.570000,126.459999,117.899254,74474500
2015-02-13,127.279999,127.279999,125.650002,127.080002,118.477295,54272200
2015-02-17,127.489998,128.880005,126.919998,127.830002,119.176529,63152400
2015-02-18,127.629997,128.779999,127.449997,128.720001,120.006287,44891700
2015-02-19,128.479996,129.029999,128.330002,128.449997,119.754547,37362400
2015-02-20,128.619995,129.500000,128.050003,129.500000,120.733452,48948400
2015-02-23,130.020004,133.000000,129.660004,133.000000,123.996544,70974100
2015-02-24,132.940002,133.600006,131.169998,132.169998,123.222740,69228100
2015-02-25,131.559998,131.600006,128.149994,128.789993,120.071518,74711700
2015-02-26,128.789993,130.869995,126.610001,130.419998,121.591179,91287500
2015-02-27,130.000000,130.570007,128.240005,128.460007,119.763885,62014800
2015-03-02,129.250000,130.279999,128.300003,129.089996,120.351219,48096700
2015-03-03,128.960007,129.520004,128.089996,129.360001,120.602966,37816300
2015-03-04,129.100006,129.559998,128.320007,128.539993,119.838455,31666300
2015-03-05,128.580002,128.750000,125.760002,126.410004,117.852661,56517100
2015-03-06,128.399994,129.369995,126.260002,126.599998,118.029785,72842100
2015-03-09,127.959999,129.570007,125.059998,127.139999,118.533218,88528500
2015-03-10,126.410004,127.220001,123.800003,124.510002,116.081268,68856600
2015-03-11,124.750000,124.769997,122.110001,122.239998,113.964943,68939000
2015-03-12,122.309998,124.900002,121.629997,124.449997,116.025330,48362700
2015-03-13,124.400002,125.400002,122.580002,123.589996,115.223557,51827300
2015-03-16,123.879997,124.949997,122.870003,124.949997,116.491478,35874300
2015-03-17,125.900002,127.320000,125.650002,127.040001,118.439980,51023100
2015-03-18,127.000000,129.160004,126.370003,128.470001,119.773201,65270900
2015-03-19,128.750000,129.250000,127.400002,127.500000,118.868874,45809500
2015-03-20,128.250000,128.399994,125.160004,125.900002,117.377174,68695100
2015-03-23,127.120003,127.849998,126.519997,127.209999,118.598503,37709700
2015-03-24,127.230003,128.039993,126.559998,126.690002,118.113708,32842300
2015-03-25,126.540001,126.820000,123.379997,123.379997,115.027771,51655200
2015-03-26,122.760002,124.879997,122.599998,124.239998,115.829559,47572900
2015-03-27,124.570000,124.699997,122.910004,123.250000,114.906578,39546200
2015-03-30,124.050003,126.400002,124.000000,126.370003,117.815361,47099700
2015-03-31,126.089996,126.489998,124.360001,124.430000,116.006676,42090600
2015-04-01,124.820000,125.120003,123.099998,124.250000,115.838860,40621400
2015-04-02,125.029999,125.559998,124.190002,125.320000,116.836441,32220100
2015-04-06,124.470001,127.510002,124.330002,127.349998,118.729012,37194000
2015-04-07,127.639999,128.119995,125.980003,126.010002,117.479729,35012300
2015-04-08,125.849998,126.400002,124.970001,125.599998,117.097473,37329200
2015-04-09,125.849998,126.580002,124.660004,126.559998,117.992477,32484000
2015-04-10,125.949997,127.209999,125.260002,127.099998,118.495934,40188000
2015-04-13,128.369995,128.570007,126.610001,126.849998,118.262863,36365100
2015-04-14,127.000000,127.290001,125.910004,126.300003,117.750107,25524600
2015-04-15,126.410004,127.129997,126.010002,126.779999,118.197601,28970400
2015-04-16,126.279999,127.099998,126.110001,126.169998,117.628891,28369000
2015-04-17,125.550003,126.139999,124.459999,124.750000,116.305008,51957000
2015-04-20,125.570000,128.119995,125.169998,127.599998,118.962082,47054300
2015-04-21,128.100006,128.199997,126.669998,126.910004,118.318817,32435100
2015-04-22,126.989998,128.869995,126.320000,128.619995,119.913033,37654500
2015-04-23,128.300003,130.419998,128.139999,129.669998,120.891975,45770900
2015-04-24,130.490005,130.630005,129.229996,130.279999,121.460663,44525900
2015-04-27,132.309998,133.130005,131.149994,132.649994,123.670227,96954200
2015-04-28,134.460007,134.539993,129.570007,130.559998,121.721718,118924000
2015-04-29,130.160004,131.589996,128.300003,128.639999,119.931686,63386100
2015-04-30,128.639999,128.639999,124.580002,125.150002,116.677956,83195400
2015-05-01,126.099998,130.130005,125.300003,128.949997,120.220688,58512600
2015-05-04,129.500000,130.570007,128.259995,128.699997,119.987633,50988300
2015-05-05,128.149994,128.449997,125.779999,125.800003,117.283951,49271400
2015-05-06,126.559998,126.750000,123.360001,125.010002,116.547424,72141000
2015-05-07,124.769997,126.080002,124.019997,125.260002,117.268303,43940900
2015-05-08,126.680000,127.620003,126.110001,127.620003,119.477737,55550400
2015-05-11,127.389999,127.559998,125.629997,126.320000,118.260674,42035800
2015-05-12,125.599998,126.879997,124.820000,125.870003,117.839386,48160000
2015-05-13,126.150002,127.190002,125.870003,126.010002,117.970436,34694200
2015-05-14,127.410004,128.949997,127.160004,128.949997,120.722870,45203500
2015-05-15,129.070007,129.490005,128.210007,128.770004,120.554352,38208000
2015-05-18,128.380005,130.720001,128.360001,130.190002,121.883774,50882900
2015-05-19,130.690002,130.880005,129.639999,130.070007,121.771431,44633200
2015-05-20,130.000000,130.979996,129.339996,130.059998,121.762047,36454900
2015-05-21,130.070007,131.630005,129.830002,131.389999,123.007195,39730400
2015-05-22,131.600006,132.970001,131.399994,132.539993,124.083832,45596000
2015-05-26,132.600006,132.910004,129.119995,129.619995,121.350128,70697600
2015-05-27,130.339996,132.259995,130.050003,132.039993,123.615738,45833200
2015-05-28,131.860001,131.949997,131.100006,131.779999,123.372292,30733300
2015-05-29,131.229996,131.449997,129.899994,130.279999,121.968010,50884500
2015-06-01,130.279999,131.389999,130.050003,130.539993,122.211426,32112800
2015-06-02,129.860001,130.660004,129.320007,129.960007,121.668449,33667600
2015-06-03,130.660004,130.940002,129.899994,130.119995,121.818230,30889400
2015-06-04,129.580002,130.580002,128.910004,129.360001,121.106728,38450100
2015-06-05,129.500000,129.690002,128.360001,128.649994,120.442009,35626800
2015-06-08,128.899994,129.210007,126.830002,127.800003,119.646240,52674800
2015-06-09,126.699997,128.080002,125.620003,127.419998,119.290497,56075400
2015-06-10,127.919998,129.339996,127.849998,128.880005,120.657349,39087300
2015-06-11,129.179993,130.179993,128.479996,128.589996,120.385834,35390900
2015-06-12,128.190002,128.330002,127.110001,127.169998,119.056442,36886200
2015-06-15,126.099998,127.239998,125.709999,126.919998,118.822388,43988900
2015-06-16,127.029999,127.849998,126.370003,127.599998,119.459007,31494100
2015-06-17,127.720001,127.879997,126.739998,127.300003,119.178154,32918100
2015-06-18,127.230003,128.309998,127.220001,127.879997,119.721130,35407200
2015-06-19,127.709999,127.820000,126.400002,126.599998,118.522812,54716900
2015-06-22,127.489998,128.059998,127.080002,127.610001,119.468369,34039300
2015-06-23,127.480003,127.610001,126.879997,127.029999,118.925377,30268900
2015-06-24,127.209999,129.800003,127.120003,128.110001,119.936462,55280900
2015-06-25,128.860001,129.199997,127.500000,127.500000,119.365395,31938100
2015-06-26,127.669998,127.989998,126.510002,126.750000,118.663246,44066800
2015-06-29,125.459999,126.470001,124.480003,124.529999,116.584877,49161400
2015-06-30,125.570000,126.120003,124.860001,125.430000,117.427444,44370700
2015-07-01,126.900002,126.940002,125.989998,126.599998,118.522812,30238800
2015-07-02,126.430000,126.690002,125.769997,126.440002,118.373024,27211000
2015-07-06,124.940002,126.230003,124.849998,126.000000,117.961090,28060400
2015-07-07,125.889999,126.150002,123.769997,125.690002,117.670860,46946800
2015-07-08,124.480003,124.639999,122.540001,122.570000,114.749931,60761600
2015-07-09,123.849998,124.059998,119.220001,120.070000,112.409424,77821600
2015-07-10,121.940002,123.849998,121.209999,123.279999,115.414635,61354500
2015-07-13,125.029999,125.760002,124.320000,125.660004,117.642792,41440500
2015-07-14,126.040001,126.370003,125.040001,125.610001,117.595970,31768100
2015-07-15,125.720001,127.150002,125.580002,126.820000,118.728775,33649200
2015-07-16,127.739998,128.570007,127.349998,128.509995,120.310944,36222400
2015-07-17,129.080002,129.619995,128.309998,129.619995,121.350128,46164700
2015-07-20,130.970001,132.970001,130.699997,132.070007,123.643814,58900200
2015-07-21,132.850006,132.919998,130.320007,130.750000,122.408051,76756400
2015-07-22,121.989998,125.500000,121.989998,125.220001,117.230843,115450600
2015-07-23,126.199997,127.089996,125.059998,125.160004,117.174683,50999500
2015-07-24,125.320000,125.739998,123.900002,124.500000,116.556770,42162300
2015-07-27,123.089996,123.610001,122.120003,122.769997,114.937164,44455500
2015-07-28,123.379997,123.910004,122.550003,123.379997,115.508240,33618100
2015-07-29,123.150002,123.500000,122.269997,122.989998,115.143105,37011700
2015-07-30,122.320000,122.570000,121.709999,122.370003,114.562675,33628300
2015-07-31,122.599998,122.639999,120.910004,121.300003,113.560951,42885000
2015-08-03,121.500000,122.570000,117.519997,118.440002,110.883423,69976000
2015-08-04,117.419998,117.699997,113.250000,114.639999,107.325867,124138600
2015-08-05,112.949997,117.440002,112.099998,115.400002,108.037392,99312600
2015-08-06,115.970001,116.500000,114.120003,115.129997,108.272476,52903000
2015-08-07,114.580002,116.250000,114.500000,115.519997,108.639252,38670400
2015-08-10,116.529999,119.989998,116.529999,119.720001,112.589096,54951600
2015-08-11,117.809998,118.180000,113.330002,113.489998,106.730148,97082800
2015-08-12,112.529999,115.419998,109.629997,115.239998,108.375923,101217500
2015-08-13,116.040001,116.400002,114.540001,115.150002,108.291283,48535800
2015-08-14,114.320000,116.309998,114.010002,115.959999,109.053047,42929500
2015-08-17,116.040001,117.650002,115.500000,117.160004,110.181572,40884700
2015-08-18,116.430000,117.440002,116.010002,116.500000,109.560883,34560700
2015-08-19,116.099998,116.519997,114.680000,115.010002,108.159637,47445700
2015-08-20,114.080002,114.349998,111.629997,112.650002,105.940208,68501600
2015-08-21,110.430000,111.900002,105.650002,105.760002,99.460594,128275500
2015-08-24,94.870003,108.800003,92.000000,103.120003,96.977837,162206300
2015-08-25,111.110001,111.110001,103.500000,103.739998,97.560921,103601600
2015-08-26,107.089996,109.889999,105.050003,109.690002,103.156509,96774600
2015-08-27,112.230003,113.239998,110.019997,112.919998,106.194115,84616100
2015-08-28,112.169998,113.309998,111.540001,113.290001,106.542068,53164400
2015-08-31,112.029999,114.529999,112.000000,112.760002,106.043655,56229300
2015-09-01,110.150002,111.879997,107.360001,107.720001,101.303864,76845900
2015-09-02,110.230003,112.339996,109.129997,112.339996,105.648659,61888800
2015-09-03,112.489998,112.779999,110.040001,110.370003,103.795998,53233900
2015-09-04,108.970001,110.449997,108.510002,109.269997,102.761513,49996300
2015-09-08,111.750000,112.559998,110.320000,112.309998,105.620468,54843600
2015-09-09,113.760002,114.019997,109.769997,110.150002,103.589111,85010800
2015-09-10,110.269997,113.279999,109.900002,112.570000,105.864967,62892800
2015-09-11,111.790001,114.209999,111.760002,114.209999,107.407288,49915500
2015-09-14,116.580002,116.889999,114.860001,115.309998,108.441757,58363400
2015-09-15,115.930000,116.529999,114.419998,116.279999,109.353989,43341200
2015-09-16,116.250000,116.540001,115.440002,116.410004,109.476234,37173500
2015-09-17,115.660004,116.489998,113.720001,113.919998,107.134560,64112600
2015-09-18,112.209999,114.300003,111.870003,113.449997,106.692566,74285300
2015-09-21,113.669998,115.370003,113.660004,115.209999,108.347717,50222000
2015-09-22,113.379997,114.180000,112.519997,113.400002,106.645523,50346200
2015-09-23,113.629997,114.720001,113.300003,114.320000,107.510735,35756700
2015-09-24,113.250000,115.500000,112.370003,115.000000,108.150215,50219500
2015-09-25,116.440002,116.690002,114.019997,114.709999,107.877502,56151900
2015-09-28,113.849998,114.570000,112.440002,112.440002,105.742714,52109000
2015-09-29,112.830002,113.510002,107.860001,109.059998,102.564018,73365400
2015-09-30,110.169998,111.540001,108.730003,110.300003,103.730179,66473000
2015-10-01,109.070000,109.620003,107.309998,109.580002,103.053055,63929100
2015-10-02,108.010002,111.010002,107.550003,110.379997,103.805420,58019800
2015-10-05,109.879997,111.370003,109.070000,110.779999,104.181580,52064700
2015-10-06,110.629997,111.739998,109.769997,111.309998,104.680000,48196800
2015-10-07,111.739998,111.769997,109.410004,110.779999,104.181580,46765600
2015-10-08,110.190002,110.190002,108.209999,109.500000,102.977829,61979600
2015-10-09,110.000000,112.279999,109.489998,112.120003,105.441765,52766100
2015-10-12,112.730003,112.750000,111.440002,111.599998,104.952744,30467200
2015-10-13,110.820000,112.449997,110.680000,111.790001,105.131416,33049300
2015-10-14,111.290001,111.519997,109.559998,110.209999,103.645531,44462400
2015-10-15,110.930000,112.099998,110.489998,111.860001,105.197250,37673500
2015-10-16,111.779999,112.000000,110.529999,111.040001,104.426094,39232600
2015-10-19,110.800003,111.750000,110.110001,111.730003,105.075005,29759200
2015-10-20,111.339996,114.169998,110.820000,113.769997,106.993484,48778800
2015-10-21,114.000000,115.580002,113.699997,113.760002,106.984085,41795200
2015-10-22,114.330002,115.500000,114.099998,115.500000,108.620453,41654100
2015-10-23,116.699997,119.230003,116.330002,119.080002,111.987206,59366900
2015-10-26,118.080002,118.129997,114.919998,115.279999,108.413551,66333800
2015-10-27,115.400002,116.540001,113.989998,114.550003,107.727036,69884400
2015-10-28,116.930000,119.300003,116.059998,119.269997,112.165871,85551400
2015-10-29,118.699997,120.690002,118.269997,120.529999,113.350861,51227300
2015-10-30,120.989998,121.220001,119.449997,119.500000,112.382195,49365300
2015-11-02,120.800003,121.360001,119.610001,121.180000,113.962120,32203300
2015-11-03,120.790001,123.489998,120.699997,122.570000,115.269333,45519000
2015-11-04,123.129997,123.820000,121.620003,122.000000,114.733292,44886100
2015-11-05,121.849998,122.690002,120.180000,120.919998,114.204384,39552700
2015-11-06,121.110001,121.809998,120.620003,121.059998,114.336601,33042300
2015-11-09,120.959999,121.809998,120.050003,120.570000,113.873817,33871400
2015-11-10,116.900002,118.070000,116.059998,116.769997,110.284859,59127900
2015-11-11,116.370003,117.419998,115.209999,116.110001,109.661514,45218000
2015-11-12,116.260002,116.820000,115.650002,115.720001,109.293190,32525600
2015-11-13,115.199997,115.570000,112.269997,112.339996,106.100891,45812400
2015-11-16,111.379997,114.239998,111.000000,114.180000,107.838699,38106700
2015-11-17,114.919998,115.050003,113.320000,113.690002,107.375931,27616900
2015-11-18,115.760002,117.489998,115.500000,117.290001,110.775986,46674700
2015-11-19,117.639999,119.750000,116.760002,118.779999,112.183243,43295800
2015-11-20,119.199997,119.919998,118.849998,119.300003,112.674355,34287100
2015-11-23,119.269997,119.730003,117.339996,117.750000,111.210442,32482500
2015-11-24,117.330002,119.349998,117.120003,118.879997,112.277687,42803200
2015-11-25,119.209999,119.230003,117.919998,118.029999,111.474892,21388300
2015-11-27,118.290001,118.410004,117.599998,117.809998,111.267105,13046400
2015-11-30,117.989998,119.410004,117.750000,118.300003,111.729889,39180300
2015-12-01,118.750000,118.809998,116.860001,117.339996,110.823204,34852400
2015-12-02,117.339996,118.110001,116.080002,116.279999,109.822075,33386600
2015-12-03,116.550003,116.790001,114.220001,115.199997,108.802063,41569500
2015-12-04,115.290001,119.250000,115.110001,119.029999,112.419334,57777000
2015-12-07,118.980003,119.860001,117.809998,118.279999,111.710999,32084200
2015-12-08,117.519997,118.599998,116.860001,118.230003,111.663773,34309500
2015-12-09,117.639999,117.690002,115.080002,115.620003,109.198723,46361400
2015-12-10,116.040001,116.940002,115.510002,116.169998,109.718185,29104200
2015-12-11,115.190002,115.389999,112.849998,113.180000,106.894241,46886200
2015-12-14,112.180000,112.680000,109.790001,112.480003,106.233116,64318700
2015-12-15,111.940002,112.800003,110.349998,110.489998,104.353638,53323100
2015-12-16,111.070000,111.989998,108.800003,111.339996,105.156433,56238500
2015-12-17,112.019997,112.250000,108.980003,108.980003,102.927505,44772800
2015-12-18,108.910004,109.519997,105.809998,106.029999,100.141335,96453300
2015-12-21,107.279999,107.370003,105.570000,107.330002,101.369141,47590600
2015-12-22,107.400002,107.720001,106.449997,107.230003,101.274696,32789400
2015-12-23,107.269997,108.849998,107.199997,108.610001,102.578056,32657400
2015-12-24,109.000000,109.000000,107.949997,108.029999,102.030258,13570400
2015-12-28,107.589996,107.690002,106.180000,106.820000,100.887466,26704200
2015-12-29,106.959999,109.430000,106.860001,108.739998,102.700844,30931200
2015-12-30,108.580002,108.699997,107.180000,107.320000,101.359718,25213800
2015-12-31,107.010002,107.029999,104.820000,105.260002,99.414101,40635300
2016-01-04,102.610001,105.370003,102.000000,105.349998,99.499107,67649400
2016-01-05,105.750000,105.849998,102.410004,102.709999,97.005730,55791000
2016-01-06,100.559998,102.370003,99.870003,100.699997,95.107361,68457400
2016-01-07,98.680000,100.129997,96.430000,96.449997,91.093399,81094400
2016-01-08,98.550003,99.110001,96.760002,96.959999,91.575073,70798000
2016-01-11,98.970001,99.059998,97.339996,98.529999,93.057869,49739400
2016-01-12,100.550003,100.690002,98.839996,99.959999,94.408447,49154200
2016-01-13,100.320000,101.190002,97.300003,97.389999,91.981194,62439600
2016-01-14,97.959999,100.480003,95.739998,99.519997,93.992889,63170100
2016-01-15,96.199997,97.709999,95.360001,97.129997,91.735634,79010000
2016-01-19,98.410004,98.650002,95.500000,96.660004,91.291718,53087700
2016-01-20,95.099998,98.190002,93.419998,96.790001,91.414520,72334400
2016-01-21,97.059998,97.879997,94.940002,96.300003,90.951736,52161500
2016-01-22,98.629997,101.459999,98.370003,101.419998,95.787369,65800500
2016-01-25,101.519997,101.529999,99.209999,99.440002,93.917336,51794500
2016-01-26,99.930000,100.879997,98.070000,99.989998,94.436790,75077000
2016-01-27,96.040001,96.629997,93.339996,93.419998,88.231659,133369700
2016-01-28,93.790001,94.519997,92.389999,94.089996,88.864449,55678800
2016-01-29,94.790001,97.339996,94.349998,97.339996,91.933960,64416500
2016-02-01,96.470001,96.709999,95.400002,96.430000,91.074501,40943500
2016-02-02,95.419998,96.040001,94.279999,94.480003,89.232796,37357200
2016-02-03,95.000000,96.839996,94.080002,96.349998,90.998932,45964300
2016-02-04,95.860001,97.330002,95.190002,96.599998,91.730110,46471700
2016-02-05,96.519997,96.919998,93.690002,94.019997,89.280190,46418100
2016-02-08,93.129997,95.699997,93.040001,95.010002,90.220276,54021400
2016-02-09,94.290001,95.940002,93.930000,94.989998,90.201294,44331200
2016-02-10,95.919998,96.349998,94.099998,94.269997,89.517586,42343600
2016-02-11,93.790001,94.720001,92.589996,93.699997,88.976318,50074700
2016-02-12,94.190002,94.500000,93.010002,93.989998,89.251686,40351400
2016-02-16,95.019997,96.849998,94.610001,96.639999,91.768089,49057900
2016-02-17,96.669998,98.209999,96.150002,98.120003,93.173508,44863200
2016-02-18,98.839996,98.889999,96.089996,96.260002,91.407272,39021000
2016-02-19,96.000000,96.760002,95.800003,96.040001,91.198341,35374200
2016-02-22,96.309998,96.900002,95.919998,96.879997,91.995995,34280800
2016-02-23,96.400002,96.500000,94.550003,94.690002,89.916420,31942600
2016-02-24,93.980003,96.379997,93.320000,96.099998,91.255333,36255700
2016-02-25,96.050003,96.760002,95.250000,96.760002,91.882057,27582700
2016-02-26,97.199997,98.019997,96.580002,96.910004,92.024490,28991100
2016-02-29,96.860001,98.230003,96.650002,96.690002,91.815598,35216300
2016-03-01,97.650002,100.769997,97.419998,100.529999,95.461998,50407100
2016-03-02,100.510002,100.889999,99.639999,100.750000,95.670914,33169600
2016-03-03,100.580002,101.709999,100.449997,101.500000,96.383095,36955700
2016-03-04,102.370003,103.750000,101.370003,103.010002,97.816986,46055100
2016-03-07,102.389999,102.830002,100.959999,101.870003,96.734444,35828900
2016-03-08,100.779999,101.760002,100.400002,101.029999,95.936798,31561900
2016-03-09,101.309998,101.580002,100.269997,101.120003,96.022263,27201700
2016-03-10,101.410004,102.239998,100.150002,101.169998,96.069733,33513600
2016-03-11,102.239998,102.279999,101.500000,102.260002,97.104797,27408200
2016-03-14,101.910004,102.910004,101.779999,102.519997,97.351677,25076100
2016-03-15,103.959999,105.180000,103.849998,104.580002,99.307831,40067700
2016-03-16,104.610001,106.309998,104.589996,105.970001,100.627762,38303500
2016-03-17,105.519997,106.470001,104.959999,105.800003,100.466324,34420700
2016-03-18,106.339996,106.500000,105.190002,105.919998,100.580276,44205200
2016-03-21,105.930000,107.650002,105.139999,105.910004,100.570778,35502700
2016-03-22,105.250000,107.290001,105.209999,106.720001,101.339943,32444400
2016-03-23,106.480003,107.070000,105.900002,106.129997,100.779694,25703500
2016-03-24,105.470001,106.250000,104.889999,105.669998,100.342873,26133000
2016-03-28,106.000000,106.190002,105.059998,105.190002,99.887093,19411400
2016-03-29,104.889999,107.790001,104.879997,107.680000,102.251556,31190100
2016-03-30,108.650002,110.419998,108.599998,109.559998,104.036758,45601100
2016-03-31,109.720001,109.900002,108.879997,108.989998,103.495514,25888400
2016-04-01,108.779999,110.000000,108.199997,109.989998,104.445091,25874000
2016-04-04,110.419998,112.190002,110.269997,111.120003,105.518127,37356200
2016-04-05,109.510002,110.730003,109.419998,109.809998,104.274162,26578700
2016-04-06,110.230003,110.980003,109.199997,110.959999,105.366203,26404100
2016-04-07,109.949997,110.419998,108.120003,108.540001,103.068192,31801900
2016-04-08,108.910004,109.769997,108.169998,108.660004,103.182144,23581700
2016-04-11,108.970001,110.610001,108.830002,109.019997,103.523987,29407500
2016-04-12,109.339996,110.500000,108.660004,110.440002,104.872406,27232300
2016-04-13,110.800003,112.339996,110.800003,112.040001,106.391754,33257300
2016-04-14,111.620003,112.389999,111.330002,112.099998,106.448715,25473900
2016-04-15,112.110001,112.300003,109.730003,109.849998,104.312149,46939000
2016-04-18,108.889999,108.949997,106.940002,107.480003,102.061638,60834000
2016-04-19,107.879997,108.000000,106.230003,106.910004,101.520370,32384900
2016-04-20,106.639999,108.089996,106.059998,107.129997,101.729279,30611000
2016-04-21,106.930000,106.930000,105.519997,105.970001,100.627762,31552500
2016-04-22,105.010002,106.480003,104.620003,105.680000,100.352371,33683100
2016-04-25,105.000000,105.650002,104.510002,105.080002,99.782631,28031600
2016-04-26,103.910004,105.300003,103.910004,104.349998,99.089409,56016200
2016-04-27,96.000000,98.709999,95.680000,97.820000,92.888634,114602100
2016-04-28,97.610001,97.879997,94.250000,94.830002,90.049362,82242700
2016-04-29,93.989998,94.720001,92.510002,93.739998,89.014297,68531500
2016-05-02,93.970001,94.080002,92.400002,93.639999,88.919334,48160100
2016-05-03,94.199997,95.739998,93.680000,95.180000,90.381714,56831300
2016-05-04,95.199997,95.900002,93.820000,94.190002,89.441612,41025500
2016-05-05,94.000000,94.070000,92.680000,93.239998,89.078583,35890500
2016-05-06,93.370003,93.449997,91.849998,92.720001,88.581795,43458200
2016-05-09,93.000000,93.769997,92.589996,92.790001,88.648651,32936400
2016-05-10,93.330002,93.570000,92.110001,93.419998,89.250542,33686800
2016-05-11,93.480003,93.570000,92.459999,92.510002,88.381157,28719100
2016-05-12,92.720001,92.779999,89.470001,90.339996,86.308014,76314700
2016-05-13,90.000000,91.669998,90.000000,90.519997,86.479965,44392800
2016-05-16,92.389999,94.389999,91.650002,93.879997,89.690018,61259800
2016-05-17,94.550003,94.699997,93.010002,93.489998,89.317413,46916900
2016-05-18,94.160004,95.209999,93.889999,94.559998,90.339684,42062400
2016-05-19,94.639999,94.639999,93.570000,94.199997,89.995728,30442100
2016-05-20,94.639999,95.430000,94.519997,95.220001,90.970207,32026000
2016-05-23,95.870003,97.190002,95.669998,96.430000,92.126205,38018600
2016-05-24,97.220001,98.089996,96.839996,97.900002,93.530609,35140200
2016-05-25,98.669998,99.739998,98.110001,99.620003,95.173828,38168800
2016-05-26,99.680000,100.730003,98.639999,100.410004,95.928566,56331200
2016-05-27,99.440002,100.470001,99.250000,100.349998,95.871239,36229500
2016-05-31,99.599998,100.400002,98.820000,99.860001,95.403122,42307200
2016-06-01,99.019997,99.540001,98.330002,98.459999,94.065598,29173300
2016-06-02,97.599998,97.839996,96.629997,97.720001,93.358643,40191600
2016-06-03,97.790001,98.269997,97.449997,97.919998,93.549706,28062900
2016-06-06,97.989998,101.889999,97.550003,98.629997,94.228004,23292500
2016-06-07,99.250000,99.870003,98.959999,99.029999,94.610161,22409500
2016-06-08,99.019997,99.559998,98.680000,98.940002,94.524185,20848100
2016-06-09,98.500000,99.989998,98.459999,99.650002,95.202492,26601400
2016-06-10,98.529999,99.349998,98.480003,98.830002,94.419098,31712900
2016-06-13,98.690002,99.120003,97.099998,97.339996,92.995583,38020500
2016-06-14,97.320000,98.480003,96.750000,97.459999,93.110229,31931900
2016-06-15,97.820000,98.410004,97.029999,97.139999,92.804520,29445200
2016-06-16,96.449997,97.750000,96.070000,97.550003,93.196228,31326800
2016-06-17,96.620003,96.650002,95.300003,95.330002,91.075302,61008200
2016-06-20,96.000000,96.570000,95.029999,95.099998,90.855560,34411900
